{
	"name": "Go:1.17.5",
	"build": {
		"dockerfile": "Dockerfile",
		"args": {}
	},
	"extensions": [
        "golang.go@0.29.0",
        "davidanson.vscode-markdownlint@0.45.0",
		"GitLab.gitlab-workflow@3.40.2",
		"redhat.vscode-yaml@1.40.0"
	],
}